^C:\PROJECTS\DEKUENGINE\DEKUENGINE\INPUT\DEBUG\INPUTSYSTEM.OBJ|C:\PROJECTS\DEKUENGINE\DEKUENGINE\INPUT\DEBUG\INPUTTYPES.OBJ|C:\PROJECTS\DEKUENGINE\DEKUENGINE\INPUT\DEBUG\PRECOMPILED.OBJ
C:\PROJECTS\DEKUENGINE\DEKUENGINE\INPUT\DEBUG\INPUTSYSTEM.OBJ
C:\WINDOWS\SYSTEM32\TZRES.DLL
C:\PROJECTS\DEKUENGINE\DEKUENGINE\INPUT\DEBUG\INPUTTYPES.OBJ
C:\PROJECTS\DEKUENGINE\DEKUENGINE\INPUT\DEBUG\PRECOMPILED.OBJ
C:\WINDOWS\GLOBALIZATION\SORTING\SORTDEFAULT.NLS
