^C:\USERS\JAKOB\DESKTOP\PROJECTS\REPOS\DEKUENGINE\DEKUENGINE\GRAPHICS\RELEASE\CAMERA.OBJ|C:\USERS\JAKOB\DESKTOP\PROJECTS\REPOS\DEKUENGINE\DEKUENGINE\GRAPHICS\RELEASE\CONSTANTBUFFER.OBJ|C:\USERS\JAKOB\DESKTOP\PROJECTS\REPOS\DEKUENGINE\DEKUENGINE\GRAPHICS\RELEASE\D3DUTIL.OBJ|C:\USERS\JAKOB\DESKTOP\PROJECTS\REPOS\DEKUENGINE\DEKUENGINE\GRAPHICS\RELEASE\DEBUGUI.OBJ|C:\USERS\JAKOB\DESKTOP\PROJECTS\REPOS\DEKUENGINE\DEKUENGINE\GRAPHICS\RELEASE\GRAPHICSSYSTEM.OBJ|C:\USERS\JAKOB\DESKTOP\PROJECTS\REPOS\DEKUENGINE\DEKUENGINE\GRAPHICS\RELEASE\MESHBUFFER.OBJ|C:\USERS\JAKOB\DESKTOP\PROJECTS\REPOS\DEKUENGINE\DEKUENGINE\GRAPHICS\RELEASE\MESHBUILDER.OBJ|C:\USERS\JAKOB\DESKTOP\PROJECTS\REPOS\DEKUENGINE\DEKUENGINE\GRAPHICS\RELEASE\PIXELSHADER.OBJ|C:\USERS\JAKOB\DESKTOP\PROJECTS\REPOS\DEKUENGINE\DEKUENGINE\GRAPHICS\RELEASE\PRECOMPILED.OBJ|C:\USERS\JAKOB\DESKTOP\PROJECTS\REPOS\DEKUENGINE\DEKUENGINE\GRAPHICS\RELEASE\SAMPLER.OBJ|C:\USERS\JAKOB\DESKTOP\PROJECTS\REPOS\DEKUENGINE\DEKUENGINE\GRAPHICS\RELEASE\SIMPLEDRAW.OBJ|C:\USERS\JAKOB\DESKTOP\PROJECTS\REPOS\DEKUENGINE\DEKUENGINE\GRAPHICS\RELEASE\SPRITERENDERER.OBJ|C:\USERS\JAKOB\DESKTOP\PROJECTS\REPOS\DEKUENGINE\DEKUENGINE\GRAPHICS\RELEASE\TEXTURE.OBJ|C:\USERS\JAKOB\DESKTOP\PROJECTS\REPOS\DEKUENGINE\DEKUENGINE\GRAPHICS\RELEASE\TEXTUREMANAGER.OBJ|C:\USERS\JAKOB\DESKTOP\PROJECTS\REPOS\DEKUENGINE\DEKUENGINE\GRAPHICS\RELEASE\VERTEXSHADER.OBJ
C:\USERS\JAKOB\DESKTOP\PROJECTS\REPOS\DEKUENGINE\DEKUENGINE\GRAPHICS\RELEASE\SPRITERENDERER.OBJ
C:\WINDOWS\SYSTEM32\TZRES.DLL
C:\USERS\JAKOB\DESKTOP\PROJECTS\REPOS\DEKUENGINE\DEKUENGINE\GRAPHICS\RELEASE\D3DUTIL.OBJ
C:\USERS\JAKOB\DESKTOP\PROJECTS\REPOS\DEKUENGINE\DEKUENGINE\GRAPHICS\RELEASE\DEBUGUI.OBJ
C:\USERS\JAKOB\DESKTOP\PROJECTS\REPOS\DEKUENGINE\DEKUENGINE\GRAPHICS\RELEASE\SAMPLER.OBJ
C:\USERS\JAKOB\DESKTOP\PROJECTS\REPOS\DEKUENGINE\DEKUENGINE\GRAPHICS\RELEASE\CAMERA.OBJ
C:\USERS\JAKOB\DESKTOP\PROJECTS\REPOS\DEKUENGINE\DEKUENGINE\GRAPHICS\RELEASE\CONSTANTBUFFER.OBJ
C:\USERS\JAKOB\DESKTOP\PROJECTS\REPOS\DEKUENGINE\DEKUENGINE\GRAPHICS\RELEASE\GRAPHICSSYSTEM.OBJ
C:\USERS\JAKOB\DESKTOP\PROJECTS\REPOS\DEKUENGINE\DEKUENGINE\GRAPHICS\RELEASE\MESHBUFFER.OBJ
C:\USERS\JAKOB\DESKTOP\PROJECTS\REPOS\DEKUENGINE\DEKUENGINE\GRAPHICS\RELEASE\MESHBUILDER.OBJ
C:\USERS\JAKOB\DESKTOP\PROJECTS\REPOS\DEKUENGINE\DEKUENGINE\GRAPHICS\RELEASE\PIXELSHADER.OBJ
C:\USERS\JAKOB\DESKTOP\PROJECTS\REPOS\DEKUENGINE\DEKUENGINE\GRAPHICS\RELEASE\PRECOMPILED.OBJ
C:\USERS\JAKOB\DESKTOP\PROJECTS\REPOS\DEKUENGINE\DEKUENGINE\GRAPHICS\RELEASE\SIMPLEDRAW.OBJ
C:\USERS\JAKOB\DESKTOP\PROJECTS\REPOS\DEKUENGINE\DEKUENGINE\GRAPHICS\RELEASE\TEXTUREMANAGER.OBJ
C:\USERS\JAKOB\DESKTOP\PROJECTS\REPOS\DEKUENGINE\DEKUENGINE\GRAPHICS\RELEASE\VERTEXSHADER.OBJ
C:\USERS\JAKOB\DESKTOP\PROJECTS\REPOS\DEKUENGINE\DEKUENGINE\GRAPHICS\RELEASE\TEXTURE.OBJ
C:\WINDOWS\GLOBALIZATION\SORTING\SORTDEFAULT.NLS
