^C:\USERS\JAKOB\DESKTOP\PROJECTS\REPOS\DEKUENGINE\DEKUENGINE\MATH\X64\RELEASE\DEKUMATH.OBJ|C:\USERS\JAKOB\DESKTOP\PROJECTS\REPOS\DEKUENGINE\DEKUENGINE\MATH\X64\RELEASE\PRECOMPILED.OBJ
/OUT:"C:\USERS\JAKOB\DESKTOP\PROJECTS\REPOS\DEKUENGINE\DEKUENGINE\X64\RELEASE\MATH.LIB" /NOLOGO /MACHINE:X64 /LTCG X64\RELEASE\DEKUMATH.OBJ
X64\RELEASE\PRECOMPILED.OBJ
