^C:\PROJECTS\DEKUENGINE\DEKUENGINE\00_HELLOWORLD\DEBUG\WINMAIN.OBJ
C:\PROJECTS\DEKUENGINE\DEKUENGINE\DEBUG\00_HELLOWORLD.ILK
C:\PROJECTS\DEKUENGINE\DEKUENGINE\DEBUG\00_HELLOWORLD.EXE
C:\PROJECTS\DEKUENGINE\DEKUENGINE\DEBUG\00_HELLOWORLD.PDB
