^C:\PROJECTS\DEKUENGINE\DEKUENGINE\GRAPHICS\DEBUG\CAMERA.OBJ|C:\PROJECTS\DEKUENGINE\DEKUENGINE\GRAPHICS\DEBUG\CONSTANTBUFFER.OBJ|C:\PROJECTS\DEKUENGINE\DEKUENGINE\GRAPHICS\DEBUG\D3DUTIL.OBJ|C:\PROJECTS\DEKUENGINE\DEKUENGINE\GRAPHICS\DEBUG\DEBUGUI.OBJ|C:\PROJECTS\DEKUENGINE\DEKUENGINE\GRAPHICS\DEBUG\GRAPHICSSYSTEM.OBJ|C:\PROJECTS\DEKUENGINE\DEKUENGINE\GRAPHICS\DEBUG\MESHBUFFER.OBJ|C:\PROJECTS\DEKUENGINE\DEKUENGINE\GRAPHICS\DEBUG\MESHBUILDER.OBJ|C:\PROJECTS\DEKUENGINE\DEKUENGINE\GRAPHICS\DEBUG\PIXELSHADER.OBJ|C:\PROJECTS\DEKUENGINE\DEKUENGINE\GRAPHICS\DEBUG\PRECOMPILED.OBJ|C:\PROJECTS\DEKUENGINE\DEKUENGINE\GRAPHICS\DEBUG\SAMPLER.OBJ|C:\PROJECTS\DEKUENGINE\DEKUENGINE\GRAPHICS\DEBUG\SIMPLEDRAW.OBJ|C:\PROJECTS\DEKUENGINE\DEKUENGINE\GRAPHICS\DEBUG\SPRITERENDERER.OBJ|C:\PROJECTS\DEKUENGINE\DEKUENGINE\GRAPHICS\DEBUG\TEXTURE.OBJ|C:\PROJECTS\DEKUENGINE\DEKUENGINE\GRAPHICS\DEBUG\TEXTUREMANAGER.OBJ|C:\PROJECTS\DEKUENGINE\DEKUENGINE\GRAPHICS\DEBUG\VERTEXSHADER.OBJ
/OUT:"C:\PROJECTS\DEKUENGINE\DEKUENGINE\DEBUG\GRAPHICS.LIB" /NOLOGO /MACHINE:X86 DEBUG\SPRITERENDERER.OBJ
DEBUG\D3DUTIL.OBJ
DEBUG\DEBUGUI.OBJ
DEBUG\SAMPLER.OBJ
DEBUG\CAMERA.OBJ
DEBUG\CONSTANTBUFFER.OBJ
DEBUG\GRAPHICSSYSTEM.OBJ
DEBUG\MESHBUFFER.OBJ
DEBUG\MESHBUILDER.OBJ
DEBUG\PIXELSHADER.OBJ
DEBUG\PRECOMPILED.OBJ
DEBUG\SIMPLEDRAW.OBJ
DEBUG\TEXTUREMANAGER.OBJ
DEBUG\VERTEXSHADER.OBJ
DEBUG\TEXTURE.OBJ
