^C:\USERS\JAKOB\DESKTOP\PROJECTS\REPOS\DEKUENGINE\DEKUENGINE\GRAPHICS\X64\RELEASE\CAMERA.OBJ|C:\USERS\JAKOB\DESKTOP\PROJECTS\REPOS\DEKUENGINE\DEKUENGINE\GRAPHICS\X64\RELEASE\CONSTANTBUFFER.OBJ|C:\USERS\JAKOB\DESKTOP\PROJECTS\REPOS\DEKUENGINE\DEKUENGINE\GRAPHICS\X64\RELEASE\D3DUTIL.OBJ|C:\USERS\JAKOB\DESKTOP\PROJECTS\REPOS\DEKUENGINE\DEKUENGINE\GRAPHICS\X64\RELEASE\DEBUGUI.OBJ|C:\USERS\JAKOB\DESKTOP\PROJECTS\REPOS\DEKUENGINE\DEKUENGINE\GRAPHICS\X64\RELEASE\GRAPHICSSYSTEM.OBJ|C:\USERS\JAKOB\DESKTOP\PROJECTS\REPOS\DEKUENGINE\DEKUENGINE\GRAPHICS\X64\RELEASE\MESHBUFFER.OBJ|C:\USERS\JAKOB\DESKTOP\PROJECTS\REPOS\DEKUENGINE\DEKUENGINE\GRAPHICS\X64\RELEASE\MESHBUILDER.OBJ|C:\USERS\JAKOB\DESKTOP\PROJECTS\REPOS\DEKUENGINE\DEKUENGINE\GRAPHICS\X64\RELEASE\PIXELSHADER.OBJ|C:\USERS\JAKOB\DESKTOP\PROJECTS\REPOS\DEKUENGINE\DEKUENGINE\GRAPHICS\X64\RELEASE\PRECOMPILED.OBJ|C:\USERS\JAKOB\DESKTOP\PROJECTS\REPOS\DEKUENGINE\DEKUENGINE\GRAPHICS\X64\RELEASE\SAMPLER.OBJ|C:\USERS\JAKOB\DESKTOP\PROJECTS\REPOS\DEKUENGINE\DEKUENGINE\GRAPHICS\X64\RELEASE\SIMPLEDRAW.OBJ|C:\USERS\JAKOB\DESKTOP\PROJECTS\REPOS\DEKUENGINE\DEKUENGINE\GRAPHICS\X64\RELEASE\SPRITERENDERER.OBJ|C:\USERS\JAKOB\DESKTOP\PROJECTS\REPOS\DEKUENGINE\DEKUENGINE\GRAPHICS\X64\RELEASE\TEXTURE.OBJ|C:\USERS\JAKOB\DESKTOP\PROJECTS\REPOS\DEKUENGINE\DEKUENGINE\GRAPHICS\X64\RELEASE\TEXTUREMANAGER.OBJ|C:\USERS\JAKOB\DESKTOP\PROJECTS\REPOS\DEKUENGINE\DEKUENGINE\GRAPHICS\X64\RELEASE\VERTEXSHADER.OBJ
/OUT:"C:\USERS\JAKOB\DESKTOP\PROJECTS\REPOS\DEKUENGINE\DEKUENGINE\X64\RELEASE\GRAPHICS.LIB" /NOLOGO /MACHINE:X64 /LTCG X64\RELEASE\SPRITERENDERER.OBJ
X64\RELEASE\D3DUTIL.OBJ
X64\RELEASE\DEBUGUI.OBJ
X64\RELEASE\SAMPLER.OBJ
X64\RELEASE\CAMERA.OBJ
X64\RELEASE\CONSTANTBUFFER.OBJ
X64\RELEASE\GRAPHICSSYSTEM.OBJ
X64\RELEASE\MESHBUFFER.OBJ
X64\RELEASE\MESHBUILDER.OBJ
X64\RELEASE\PIXELSHADER.OBJ
X64\RELEASE\PRECOMPILED.OBJ
X64\RELEASE\SIMPLEDRAW.OBJ
X64\RELEASE\TEXTUREMANAGER.OBJ
X64\RELEASE\VERTEXSHADER.OBJ
X64\RELEASE\TEXTURE.OBJ
