^C:\PROJECTS\DEKUENGINE\DEKUENGINE\01_HELLOWINDOW\WINMAIN.CPP
C:\PROJECTS\DEKUENGINE\DEKUENGINE\01_HELLOWINDOW\DEBUG\VC142.PDB
C:\PROJECTS\DEKUENGINE\DEKUENGINE\01_HELLOWINDOW\DEBUG\VC142.IDB
C:\PROJECTS\DEKUENGINE\DEKUENGINE\01_HELLOWINDOW\DEBUG\WINMAIN.OBJ
