^C:\PROJECTS\DEKUENGINE\DEKUENGINE\01_HELLOWINDOW\DEBUG\WINMAIN.OBJ|C:\PROJECTS\DEKUENGINE\DEKUENGINE\DEBUG\CORE.LIB
C:\PROJECTS\DEKUENGINE\DEKUENGINE\DEBUG\01_HELLOWINDOW.ILK
C:\PROJECTS\DEKUENGINE\DEKUENGINE\DEBUG\01_HELLOWINDOW.EXE
C:\PROJECTS\DEKUENGINE\DEKUENGINE\DEBUG\01_HELLOWINDOW.PDB
