^C:\PROJECTS\DEKUENGINE\DEKUENGINE\DEBUG\CORE.LIB|C:\PROJECTS\DEKUENGINE\DEKUENGINE\DEBUG\MATH.LIB|C:\PROJECTS\DEKUENGINE\DEKUENGINE\MATHTEST\DEBUG\STDAFX.OBJ|C:\PROJECTS\DEKUENGINE\DEKUENGINE\MATHTEST\DEBUG\VECTOR2TEST.OBJ|C:\PROJECTS\DEKUENGINE\DEKUENGINE\MATHTEST\DEBUG\VECTOR3TEST.OBJ|C:\PROJECTS\DEKUENGINE\DEKUENGINE\MATHTEST\DEBUG\VECTOR4TEST.OBJ
/OUT:"C:\PROJECTS\DEKUENGINE\DEKUENGINE\DEBUG\MATHTEST.DLL" /INCREMENTAL /NOLOGO /LIBPATH:"C:\PROGRAM FILES (X86)\MICROSOFT VISUAL STUDIO\2019\COMMUNITY\VC\UNITTEST\LIB" KERNEL32.LIB USER32.LIB GDI32.LIB WINSPOOL.LIB COMDLG32.LIB ADVAPI32.LIB SHELL32.LIB OLE32.LIB OLEAUT32.LIB UUID.LIB ODBC32.LIB ODBCCP32.LIB /MANIFEST /MANIFESTUAC:"level='asInvoker' uiAccess='false'" /manifest:embed /DEBUG:FASTLINK /PDB:"C:\PROJECTS\DEKUENGINE\DEKUENGINE\DEBUG\MATHTEST.PDB" /SUBSYSTEM:WINDOWS /TLBID:1 /DYNAMICBASE /NXCOMPAT /IMPLIB:"C:\PROJECTS\DEKUENGINE\DEKUENGINE\DEBUG\MATHTEST.LIB" /MACHINE:X86 /DLL DEBUG\STDAFX.OBJ
DEBUG\VECTOR2TEST.OBJ
DEBUG\VECTOR3TEST.OBJ
DEBUG\VECTOR4TEST.OBJ
C:\PROJECTS\DEKUENGINE\DEKUENGINE\DEBUG\CORE.LIB
C:\PROJECTS\DEKUENGINE\DEKUENGINE\DEBUG\MATH.LIB
