^C:\PROJECTS\DEKUENGINE\DEKUENGINE\05_HELLOTEXTUREMAPPING\DEBUG\WINMAIN.OBJ|C:\PROJECTS\DEKUENGINE\DEKUENGINE\DEBUG\CORE.LIB|C:\PROJECTS\DEKUENGINE\DEKUENGINE\DEBUG\GRAPHICS.LIB|C:\PROJECTS\DEKUENGINE\DEKUENGINE\DEBUG\MATH.LIB|C:\PROJECTS\DEKUENGINE\DEKUENGINE\EXTERNAL\DIRECTXTK\BIN\DESKTOP_2019_WIN10\WIN32\DEBUG\DIRECTXTK.LIB
/OUT:"C:\PROJECTS\DEKUENGINE\DEKUENGINE\DEBUG\05_HELLOTEXTUREMAPPING.EXE" /INCREMENTAL /NOLOGO KERNEL32.LIB USER32.LIB GDI32.LIB WINSPOOL.LIB COMDLG32.LIB ADVAPI32.LIB SHELL32.LIB OLE32.LIB OLEAUT32.LIB UUID.LIB ODBC32.LIB ODBCCP32.LIB /MANIFEST /MANIFESTUAC:"level='asInvoker' uiAccess='false'" /manifest:embed /DEBUG:FASTLINK /PDB:"C:\PROJECTS\DEKUENGINE\DEKUENGINE\DEBUG\05_HELLOTEXTUREMAPPING.PDB" /SUBSYSTEM:WINDOWS /TLBID:1 /DYNAMICBASE /NXCOMPAT /IMPLIB:"C:\PROJECTS\DEKUENGINE\DEKUENGINE\DEBUG\05_HELLOTEXTUREMAPPING.LIB" /MACHINE:X86 DEBUG\WINMAIN.OBJ
C:\PROJECTS\DEKUENGINE\DEKUENGINE\DEBUG\CORE.LIB
C:\PROJECTS\DEKUENGINE\DEKUENGINE\EXTERNAL\DIRECTXTK\BIN\DESKTOP_2019_WIN10\WIN32\DEBUG\DIRECTXTK.LIB
C:\PROJECTS\DEKUENGINE\DEKUENGINE\DEBUG\GRAPHICS.LIB
C:\PROJECTS\DEKUENGINE\DEKUENGINE\DEBUG\MATH.LIB
