^C:\PROJECTS\DEKUENGINE\DEKUENGINE\05_HELLOTEXTUREMAPPING\DEBUG\WINMAIN.OBJ|C:\PROJECTS\DEKUENGINE\DEKUENGINE\DEBUG\CORE.LIB|C:\PROJECTS\DEKUENGINE\DEKUENGINE\DEBUG\GRAPHICS.LIB|C:\PROJECTS\DEKUENGINE\DEKUENGINE\DEBUG\MATH.LIB|C:\PROJECTS\DEKUENGINE\DEKUENGINE\EXTERNAL\DIRECTXTK\BIN\DESKTOP_2019_WIN10\WIN32\DEBUG\DIRECTXTK.LIB
C:\PROJECTS\DEKUENGINE\DEKUENGINE\DEBUG\05_HELLOTEXTUREMAPPING.EXE
C:\PROJECTS\DEKUENGINE\DEKUENGINE\DEBUG\05_HELLOTEXTUREMAPPING.ILK
C:\PROJECTS\DEKUENGINE\DEKUENGINE\DEBUG\05_HELLOTEXTUREMAPPING.PDB
