^C:\PROJECTS\DEKUENGINE\DEKUENGINE\03_HELLOCUBE\WINMAIN.CPP
C:\PROJECTS\DEKUENGINE\DEKUENGINE\03_HELLOCUBE\DEBUG\VC142.PDB
C:\PROJECTS\DEKUENGINE\DEKUENGINE\03_HELLOCUBE\DEBUG\VC142.IDB
C:\PROJECTS\DEKUENGINE\DEKUENGINE\03_HELLOCUBE\DEBUG\WINMAIN.OBJ
